{
  "name": "@bilbercode/zinc-neutron",
  "mode": "file",
  "out": "docs/external",
  "theme": "node_modules/typedoc-default-themes/bin/default",
  "ignoreCompilerErrors": "true",
  "experimentalDecorators": "true",
  "emitDecoratorMetadata": "true",
  "target": "ES5",
  "moduleResolution": "node",
  "preserveConstEnums": "true",
  "stripInternal": "true",
  "suppressExcessPropertyErrors": "true",
  "suppressImplicitAnyIndexErrors": "true",
  "module": "commonjs"
}
